\version "2.24.0"
\language "english"
#(set-global-staff-size 14)
{ e,,4 r4 r4 r4 r1 r4 r4 r4 r8 r32 e16. r1 r4 { 4/5 r8. e'''8 } r4 r4 r1 r4 r16. e,32 r8 r4 r4 r4 r4 r4 { 2/3 r4 e''8 } r1 r1 r1 r32 e''''8.. r4 r4 r4 r4 r4 r4 { 2/3 r4 e'8 } r1 r1 r1 r8 e,,8 r4 r4 r4 r4 r4 r4 { 4/5 r8 e8. } r1 r1 r4 r4 r4 r32 e'''8.. r1 r4 e,4 r4 r4 r1 r8. e''16 r4 r4 r4 r4 r4 r4 { 4/5 r16 e''''4 } r1 r1 r4 r4 r4 r8 e'8 r1 r4 r4 r4 { 4/5 r16 e,,4 } r1 r1 r4 r4 r4 r8.. e32 r1 r4 r4 { 4/5 r4 e'''16 } r4 r1 r1 r4 r4 r8 e,8 r4 r1 { 4/5 r8 e''8. } r4 r4 r4 r1 r16 e''''8. r4 r4 r4 r4 r4 { 4/5 r8. e'8 } r4 r1 r1 r4 r4 r8.. e,,32 r4 r1 r4 r4 { 4/5 r8. e8 } r4 r1 r1 r4 r4 r4 r16. e'''32 r8 r1 r4 r4 { 2/3 r8 e,4 } r4 r1 r1 r4 r8.. e''32 r4 r4 r4 r4 r4 { 4/5 r4 e''''16 } r1 r4 r4 r4 r8 r32 e'16. r1 r4 r4 e,,4 r4 r1 r1 r4 r4 r16. e32 r8 r4 r1 r4 r4 e'''4 r4 r1 r1 r4 r4 r8. e,16 r4 r1 r4 { 2/3 r4 e''8 } r4 r4 } { r4 r16 as,,8. r4 r4 r1 r4 r4 r4 { 4/5 r4 as'16 } r1 r4 r4 r4 r8.. as''''32 r1 r4 r4 r4 { 2/3 r8 as''4 } r1 r4 r4 r4 r32 as,8.. r1 r1 r4 r4 { 2/3 r4 as'''8 } r4 r1 r4 r4 r16. as32 r8 r4 r1 r1 { 4/5 r16 as,,4 } r4 r4 r4 r1 r4 r8 as'8 r4 r4 r1 r1 { 4/5 r16 as''''4 } r4 r4 r4 r1 r16 as''8. r4 r4 r4 r4 r4 r4 { 4/5 r8. as,8 } r1 r4 r4 r4 r16. as'''32 r8 r1 r1 r4 r4 r4 as4 r1 r4 r4 r8 r32 as,,16. r4 r1 r1 { 4/5 r8 as'8. } r4 r4 r4 r1 r4 r8. as''''16 r4 r4 r1 r1 { 4/5 r8 as''8. } r4 r4 r4 r1 r8 as,8 r4 r4 r4 r4 r4 r4 { 4/5 r4 as'''16 } r1 r4 r4 r4 r8 r32 as16. r1 r1 r4 r4 r4 { 2/3 r8 as,,4 } r1 r4 r4 r8.. as'32 r4 r1 r1 { 2/3 r4 as''''8 } r4 r4 r4 r1 r4 r4 r32 as''8.. r4 r1 r1 { 2/3 r4 as,8 } r4 r4 r4 r1 r8. as'''16 r4 r4 r4 r1 { 4/5 r16 as4 } r4 r4 r4 r4 r4 r4 r8.. as,,32 r1 r1 r4 r4 r4 { 4/5 r8. as'8 } r1 r4 r4 r4 r16 as''''8. r1 r1 r4 as''4 r4 r4 } { r4 r4 r32 f,,8.. r4 r1 r1 { 4/5 r4 f16 } r4 r4 r4 r1 r1 r8. f'''16 r4 r4 r4 r1 r4 r4 { 2/3 r4 f,8 } r4 r1 r8 r32 f''16. r4 r4 r4 r1 r1 r4 f''''4 r4 r4 r4 r4 r4 r16. f'32 r8 r1 r4 r4 { 2/3 r4 f,,8 } r4 r1 r4 r8 r32 f16. r4 r4 r1 r1 { 4/5 r8 f'''8. } r4 r4 r4 r1 r1 r16. f,32 r8 r4 r4 r4 r1 r4 r4 { 2/3 r8 f''4 } r4 r1 r16 f''''8. r4 r4 r4 r1 r1 { 4/5 r8. f'8 } r4 r4 r4 r4 r4 r8.. f,,32 r4 r1 r4 r4 { 2/3 r8 f4 } r4 r1 r4 r16 f'''8. r4 r4 r1 r1 f,4 r4 r4 r4 r1 r4 r4 r4 r8.. f''32 r1 r1 r4 { 4/5 r4 f''''16 } r4 r4 r4 r4 r4 r8. f'16 r1 r1 r1 { 4/5 r16 f,,4 } r4 r4 r4 r4 r4 r8 f8 r4 r1 r4 { 4/5 r4 f'''16 } r4 r4 r1 r8. f,16 r4 r4 r4 r1 r4 r4 r4 { 4/5 r8. f''8 } r1 r1 r4 r4 r4 r8 f''''8 r1 r1 r4 { 4/5 r8 f'8. } r4 r4 r4 r4 r4 r16. f,,32 r8 r1 r1 r4 r4 r4 { 2/3 r4 f8 } r1 r4 r4 r32 f'''8.. r4 r1 r4 { 4/5 r8 f,8. } r4 r4 } { r4 r4 r8.. gs,,32 r4 r1 r4 r4 { 4/5 r8. gs'8 } r4 r1 r4 r8. gs''''16 r4 r4 r1 r4 r4 { 4/5 r4 gs''16 } r4 r1 r4 r4 r16 gs,8. r4 r1 r4 { 4/5 r16 gs'''4 } r4 r4 r1 r1 r16. gs32 r8 r4 r4 r4 r1 r1 { 2/3 r8 gs,,4 } r4 r4 r4 r1 r4 r4 r8.. gs'32 r4 r1 r4 r4 { 4/5 r8. gs''''8 } r4 r1 r4 r8. gs''16 r4 r4 r1 r4 r4 { 4/5 r4 gs,16 } r4 r1 r4 r4 r16 gs'''8. r4 r1 r4 { 4/5 r16 gs4 } r4 r4 r1 r1 r16. gs,,32 r8 r4 r4 r4 r1 r1 { 2/3 r8 gs'4 } r4 r4 r4 r1 r4 r4 r8.. gs''''32 r4 r1 r4 r4 { 4/5 r8. gs''8 } r4 r1 r4 r8. gs,16 r4 r4 r1 r4 r4 { 4/5 r4 gs'''16 } r4 r1 r4 r4 r16 gs8. r4 r1 r4 { 4/5 r16 gs,,4 } r4 r4 r1 r1 r16. gs'32 r8 r4 r4 r4 r1 r1 { 2/3 r8 gs''''4 } r4 r4 r4 r1 r4 r4 r8.. gs''32 r4 r1 r4 r4 { 4/5 r8. gs,8 } r4 r1 r4 r8. gs'''16 r4 r4 r1 r4 r4 { 4/5 r4 gs16 } r4 r1 r4 r4 r16 gs,,8. r4 r1 r4 { 4/5 r16 gs'4 } r4 r4 r1 r1 r16. gs''''32 r8 r4 r4 r4 r1 r1 { 2/3 r8 gs''4 } r4 r4 r4 } { r4 r4 r4 r8. a,,16 r1 r1 r4 r4 { 4/5 r8 a8. } r4 r1 r4 r4 r4 r8 a'''8 r1 r4 r4 r4 { 4/5 r16 a,4 } r1 r4 r4 r8 a''8 r4 r1 r1 r4 r4 r4 { 2/3 r8 a''''4 } r1 r4 r4 r4 r16. a'32 r8 r1 r1 { 2/3 r4 a,,8 } r4 r4 r4 r4 r4 r4 r8.. a32 r1 r1 r4 r4 { 4/5 r8. a'''8 } r4 r1 r4 r4 r4 r8 r32 a,16. r1 r4 r4 r4 { 2/3 r8 a''4 } r1 r4 r4 r8 r32 a''''16. r4 r1 r1 r4 r4 r4 { 4/5 r8 a'8. } r1 r4 r4 r4 r8 a,,8 r1 r1 { 4/5 r4 a16 } r4 r4 r4 r1 r32 a'''8.. r4 r4 r4 r1 r4 r4 { 2/3 r4 a,8 } r4 r1 r4 r4 r4 r8. a''16 r1 r4 r4 r4 { 4/5 r8 a''''8. } r1 r4 r4 r8. a'16 r4 r1 r1 r4 r4 r4 { 4/5 r8. a,,8 } r1 r4 r4 r4 r8 r32 a16. r1 r1 r4 a'''4 r4 r4 r1 r16 a,8. r4 r4 r4 r1 r4 r4 { 4/5 r4 a''16 } r4 r1 r4 r4 r4 r8.. a''''32 r1 r4 r4 r4 { 4/5 r8. a'8 } r1 r4 r4 r8.. a,,32 r4 r1 r1 r4 r4 r4 { 2/3 r4 a8 } r1 r4 r4 r4 r8. a'''16 r1 r1 r4 { 4/5 r16 a,4 } r4 r4 } { r1 r16. c,,32 r8 r4 r4 r4 r1 r4 r4 { 4/5 r16 c'4 } r4 r1 r1 r8.. c''''32 r4 r4 r4 r1 r4 r4 c''4 r4 r1 r4 r16 c,8. r4 r4 r1 { 4/5 r8. c'''8 } r4 r4 r4 r1 r4 r4 r8 c8 r4 r1 { 4/5 r16 c,,4 } r4 r4 r4 r1 r4 r4 r4 r16. c'32 r8 r1 r1 r4 { 4/5 r16 c''''4 } r4 r4 r1 r4 r4 r4 r8.. c''32 r1 r1 r4 c,4 r4 r4 r1 r16 c'''8. r4 r4 r4 r4 r4 r4 { 4/5 r8. c8 } r1 r1 r4 r8 c,,8 r4 r4 r4 r4 r4 { 4/5 r16 c'4 } r1 r1 r4 r4 r16. c''''32 r8 r4 r1 r1 { 4/5 r16 c''4 } r4 r4 r4 r1 r4 r4 r8.. c,32 r4 r1 r1 c'''4 r4 r4 r4 r4 r4 r4 r16 c8. r1 r4 r4 { 4/5 r8. c,,8 } r4 r1 r1 r8 c'8 r4 r4 r4 r4 r4 { 4/5 r16 c''''4 } r4 r1 r1 r4 r16. c''32 r8 r4 r4 r1 r4 r4 r4 { 4/5 r16 c,4 } r1 r1 r4 r8.. c'''32 r4 r4 r1 r4 r4 r4 c4 r1 r4 r4 r16 c,,8. r4 r1 r4 { 4/5 r8. c'8 } r4 r4 r1 r4 r4 r4 r8 c''''8 r1 r4 { 4/5 r16 c''4 } r4 r4 } { r1 r4 r32 b,,8.. r4 r4 r1 { 4/5 r4 b16 } r4 r4 r4 r1 r4 r4 r8. b'''16 r4 r1 r4 r4 r4 { 4/5 r4 b,16 } r1 r1 r4 r8 r32 b''16. r4 r4 r1 r4 r4 r4 b''''4 r1 r1 r4 r8. b'16 r4 r4 r1 r4 { 4/5 r8 b,,8. } r4 r4 r1 r4 r8 b8 r4 r4 r1 r4 { 2/3 r8 b'''4 } r4 r4 r1 r4 r4 r4 r16 b,8. r1 r1 { 2/3 r8 b''4 } r4 r4 r4 r1 r4 r4 r32 b''''8.. r4 r1 r4 r4 r4 { 4/5 r8 b'8. } r1 r1 r4 r4 r16 b,,8. r4 r1 r4 { 4/5 r4 b16 } r4 r4 r1 r4 r8.. b'''32 r4 r4 r1 r4 { 2/3 r4 b,8 } r4 r4 r1 r4 r4 r4 r8 r32 b''16. r1 r1 { 2/3 r4 b''''8 } r4 r4 r4 r1 r4 r4 r8 b'8 r4 r1 r4 r4 r4 { 4/5 r4 b,,16 } r1 r1 r4 r4 r8 r32 b16. r4 r1 r4 r4 { 2/3 r8 b'''4 } r4 r1 r4 r4 r16. b,32 r8 r4 r1 r4 r4 { 4/5 r16 b''4 } r4 r1 r1 r32 b''''8.. r4 r4 r4 r1 r4 { 4/5 r16 b'4 } r4 r4 r1 r4 r4 r8.. b,,32 r4 r1 r1 { 2/3 r8 b4 } r4 r4 r4 r1 r4 r4 r4 r32 b'''8.. } { r1 r4 r8 r32 cs,,16. r4 r4 r1 r4 r4 { 2/3 r4 cs'8 } r4 r1 r4 r4 r32 cs''''8.. r4 r1 r4 { 2/3 r4 cs''8 } r4 r4 r1 r1 r8 cs,8 r4 r4 r4 r1 r4 r4 r4 { 4/5 r16 cs'''4 } r1 r1 r8.. cs32 r4 r4 r4 r1 { 2/3 r4 cs,,8 } r4 r4 r4 r1 r8. cs'16 r4 r4 r4 r1 r4 { 4/5 r4 cs''''16 } r4 r4 r1 r4 r16 cs''8. r4 r4 r1 { 4/5 r4 cs,16 } r4 r4 r4 r1 r4 r4 r4 r8 r32 cs'''16. r1 r1 r4 r4 { 2/3 r8 cs4 } r4 r1 r1 r32 cs,,8.. r4 r4 r4 r4 r4 r4 { 4/5 r4 cs'16 } r1 r4 r4 r4 r8.. cs''''32 r1 r1 r4 cs''4 r4 r4 r1 r16. cs,32 r8 r4 r4 r4 r1 cs'''4 r4 r4 r4 r1 r4 r4 r8. cs16 r4 r1 r1 r4 { 4/5 r8 cs,,8. } r4 r4 r1 r4 r4 r4 r16 cs'8. r1 r4 r4 r4 cs''''4 r1 r4 r4 r4 r32 cs''8.. r1 r1 { 4/5 r16 cs,4 } r4 r4 r4 r4 r4 r4 r8 cs'''8 r1 r4 r4 r4 { 4/5 r16 cs4 } r1 r1 r4 r8.. cs,,32 r4 r4 r1 r1 { 4/5 r8. cs'8 } r4 r4 r4 r1 r4 r4 r16. cs''''32 r8 r4 r1 r4 r4 { 4/5 r16 cs''4 } r4 } { r1 r4 r4 r16. ds,,32 r8 r4 r1 r4 r4 ds4 r4 r1 r1 r4 r8 r32 ds'''16. r4 r4 r1 r1 r4 r4 ds,4 r4 r1 r8.. ds''32 r4 r4 r4 r4 r4 r4 { 2/3 r8 ds''''4 } r1 r1 r16. ds'32 r8 r4 r4 r4 r4 r4 r4 { 4/5 r8. ds,,8 } r1 r1 r4 r4 r16. ds32 r8 r4 r1 r4 r4 ds'''4 r4 r1 r1 r4 r8 r32 ds,16. r4 r4 r1 r1 r4 r4 ds''4 r4 r1 r8.. ds''''32 r4 r4 r4 r4 r4 r4 { 2/3 r8 ds'4 } r1 r1 r16. ds,,32 r8 r4 r4 r4 r4 r4 r4 { 4/5 r8. ds8 } r1 r1 r4 r4 r16. ds'''32 r8 r4 r1 r4 r4 ds,4 r4 r1 r1 r4 r8 r32 ds''16. r4 r4 r1 r1 r4 r4 ds''''4 r4 r1 r8.. ds'32 r4 r4 r4 r4 r4 r4 { 2/3 r8 ds,,4 } r1 r1 r16. ds32 r8 r4 r4 r4 r4 r4 r4 { 4/5 r8. ds'''8 } r1 r1 r4 r4 r16. ds,32 r8 r4 r1 r4 r4 ds''4 r4 r1 r1 r4 r8 r32 ds''''16. r4 r4 r1 r1 r4 r4 ds'4 r4 r1 r8.. ds,,32 r4 r4 r4 r4 r4 r4 { 2/3 r8 ds4 } r1 r1 r16. ds'''32 r8 r4 r4 r4 r4 r4 r4 { 4/5 r8. ds,8 } } { r1 r4 r4 r8.. g,,32 r4 r1 r1 g'4 r4 r4 r4 r4 r4 r16. g''''32 r8 r4 r1 r4 r4 { 4/5 r8 g''8. } r4 r1 r1 r4 r16 g,8. r4 r4 r1 r1 r4 { 4/5 r16 g'''4 } r4 r4 r1 r4 r4 r4 r8. g16 r1 r1 r4 { 4/5 r16 g,,4 } r4 r4 r4 r4 r4 r32 g'8.. r1 r1 { 4/5 r16 g''''4 } r4 r4 r4 r4 r4 r8 g''8 r4 r1 r4 r4 { 4/5 r8. g,8 } r4 r1 r1 r4 r16. g'''32 r8 r4 r4 r1 r1 r4 { 2/3 r8 g4 } r4 r4 r1 r4 r4 r4 r8.. g,,32 r1 r1 r4 { 2/3 r8 g'4 } r4 r4 r4 r4 r4 r16 g''''8. r1 r1 { 2/3 r8 g''4 } r4 r4 r4 r4 r4 r8 r32 g,16. r4 r1 r4 r4 { 2/3 r4 g'''8 } r4 r1 r1 r4 r8 g8 r4 r4 r1 r1 r4 { 4/5 r8 g,,8. } r4 r4 r1 r1 r32 g'8.. r4 r4 r4 r1 r4 { 4/5 r8 g''''8. } r4 r4 r4 r4 r4 r16. g''32 r8 r1 r1 { 4/5 r8 g,8. } r4 r4 r4 r4 r4 r8. g'''16 r4 r1 r4 r4 { 4/5 r4 g16 } r4 r1 r1 r4 r8 r32 g,,16. r4 r4 r1 r1 r4 { 4/5 r8. g'8 } r4 r4 r1 r1 r16 g''''8. r4 r4 r4 } { r1 r4 r4 r4 r16 d,,8. r1 r4 r4 { 4/5 r4 d16 } r4 r1 r4 r8. d'''16 r4 r4 r1 r4 r4 { 4/5 r4 d,16 } r4 r1 r4 r4 r32 d''8.. r4 r1 r1 d''''4 r4 r4 r4 r1 r4 r4 r4 r8 r32 d'16. r1 r1 r1 { 4/5 r8 d,,8. } r4 r4 r4 r4 r4 r16. d32 r8 r4 r1 r4 r4 d'''4 r4 r1 r8.. d,32 r4 r4 r4 r1 r4 r4 d''4 r4 r1 r4 r16 d''''8. r4 r4 r1 r4 r4 r4 { 4/5 r16 d'4 } r1 r1 r4 r4 r8. d,,16 r4 r1 r1 r4 r4 r4 { 4/5 r8. d8 } r1 r4 r8 d'''8 r4 r4 r1 r4 { 4/5 r16 d,4 } r4 r4 r1 r32 d''8.. r4 r4 r4 r1 r4 { 4/5 r16 d''''4 } r4 r4 r1 r16. d'32 r8 r4 r4 r4 r1 r4 r4 { 2/3 r8 d,,4 } r4 r1 r1 r4 r8.. d32 r4 r4 r1 r1 r4 r4 { 2/3 r4 d'''8 } r4 r1 r8 r32 d,16. r4 r4 r4 r1 { 2/3 r8 d''4 } r4 r4 r4 r4 r4 r4 r16 d''''8. r1 r1 { 2/3 r8 d'4 } r4 r4 r4 r4 r4 r4 r8 d,,8 r1 r1 r4 { 4/5 r8 d8. } r4 r4 r1 r1 r4 r32 d'''8.. r4 r4 } { r1 r4 r4 r4 r16. fs,,32 r8 r1 r1 r4 r4 r4 { 2/3 r8 fs'4 } r1 r1 r4 r4 r32 fs''''8.. r4 r1 { 4/5 r8 fs''8. } r4 r4 r4 r4 r4 r4 r8. fs,16 r1 r1 r4 { 4/5 r16 fs'''4 } r4 r4 r1 r8. fs16 r4 r4 r4 r1 r1 fs,,4 r4 r4 r4 r4 r4 r4 r8. fs'16 r1 r1 r4 r4 r4 { 2/3 r4 fs''''8 } r1 r1 r4 r4 r8 fs''8 r4 r1 { 4/5 r4 fs,16 } r4 r4 r4 r1 r16 fs'''8. r4 r4 r4 r1 r4 { 4/5 r8. fs8 } r4 r4 r1 r4 r16 fs,,8. r4 r4 r1 r1 { 4/5 r8 fs'8. } r4 r4 r4 r1 r16 fs''''8. r4 r4 r4 r1 r1 { 4/5 r16 fs''4 } r4 r4 r4 r1 r4 r4 r8.. fs,32 r4 r1 r4 { 2/3 r8 fs'''4 } r4 r4 r1 r8 r32 fs16. r4 r4 r4 r1 r4 r4 fs,,4 r4 r1 r4 r8 r32 fs'16. r4 r4 r1 r1 { 4/5 r4 fs''''16 } r4 r4 r4 r1 r8 r32 fs''16. r4 r4 r4 r1 r1 { 4/5 r8. fs,8 } r4 r4 r4 r1 r4 r4 r4 r16. fs'''32 r8 r1 r4 { 2/3 r4 fs8 } r4 r4 r1 r4 r32 fs,,8.. r4 r4 r1 r4 r4 { 4/5 r8 fs'8. } r4 r1 r4 r4 r32 fs''''8.. r4 }